{"data":[{"id":"l8jk5p","url":"https:\/\/wallhaven.cc\/w\/l8jk5p","short_url":"https:\/\/whvn.cc\/l8jk5p","views":4,"favorites":0,"source":"","purity":"sfw","category":"general","dimension_x":3840,"dimension_y":2160,"resolution":"3840x2160","ratio":"1.78","file_size":779189,"file_type":"image\/jpeg","created_at":"2023-08-03 03:02:56","colors":["#000000","#424153","#996633","#663300","#999999"],"path":"https:\/\/w.wallhaven.cc\/full\/l8\/wallhaven-l8jk5p.jpg","thumbs":{"large":"https:\/\/th.wallhaven.cc\/lg\/l8\/l8jk5p.jpg","original":"https:\/\/th.wallhaven.cc\/orig\/l8\/l8jk5p.jpg","small":"https:\/\/th.wallhaven.cc\/small\/l8\/l8jk5p.jpg"}},{"id":"9d98j8","url":"https:\/\/wallhaven.cc\/w\/9d98j8","short_url":"https:\/\/whvn.cc\/9d98j8","views":83,"favorites":1,"source":"","purity":"sfw","category":"anime","dimension_x":1920,"dimension_y":1080,"resolution":"1920x1080","ratio":"1.78","file_size":1163442,"file_type":"image\/png","created_at":"2023-08-03 00:46:58","colors":["#abbcda","#424153","#999999","#996633","#e7d8b1"],"path":"https:\/\/w.wallhaven.cc\/full\/9d\/wallhaven-9d98j8.png","thumbs":{"large":"https:\/\/th.wallhaven.cc\/lg\/9d\/9d98j8.jpg","original":"https:\/\/th.wallhaven.cc\/orig\/9d\/9d98j8.jpg","small":"https:\/\/th.wallhaven.cc\/small\/9d\/9d98j8.jpg"}},{"id":"kxlkp1","url":"https:\/\/wallhaven.cc\/w\/kxlkp1","short_url":"https:\/\/whvn.cc\/kxlkp1","views":154,"favorites":11,"source":"","purity":"sfw","category":"anime","dimension_x":1920,"dimension_y":1080,"resolution":"1920x1080","ratio":"1.78","file_size":999833,"file_type":"image\/png","created_at":"2023-08-03 00:24:19","colors":["#000000","#ffffff","#cccccc","#424153","#999999"],"path":"https:\/\/w.wallhaven.cc\/full\/kx\/wallhaven-kxlkp1.png","thumbs":{"large":"https:\/\/th.wallhaven.cc\/lg\/kx\/kxlkp1.jpg","original":"https:\/\/th.wallhaven.cc\/orig\/kx\/kxlkp1.jpg","small":"https:\/\/th.wallhaven.cc\/small\/kx\/kxlkp1.jpg"}},{"id":"1pgx91","url":"https:\/\/wallhaven.cc\/w\/1pgx91","short_url":"https:\/\/whvn.cc\/1pgx91","views":147,"favorites":8,"source":"","purity":"sfw","category":"anime","dimension_x":1920,"dimension_y":1080,"resolution":"1920x1080","ratio":"1.78","file_size":942236,"file_type":"image\/png","created_at":"2023-08-03 00:24:19","colors":["#ffffff","#cccccc","#999999","#424153","#000000"],"path":"https:\/\/w.wallhaven.cc\/full\/1p\/wallhaven-1pgx91.png","thumbs":{"large":"https:\/\/th.wallhaven.cc\/lg\/1p\/1pgx91.jpg","original":"https:\/\/th.wallhaven.cc\/orig\/1p\/1pgx91.jpg","small":"https:\/\/th.wallhaven.cc\/small\/1p\/1pgx91.jpg"}},{"id":"qzmg1r","url":"https:\/\/wallhaven.cc\/w\/qzmg1r","short_url":"https:\/\/whvn.cc\/qzmg1r","views":148,"favorites":7,"source":"https:\/\/twitter.com\/inoitoh\/status\/1673987099358531585","purity":"sfw","category":"anime","dimension_x":1920,"dimension_y":1080,"resolution":"1920x1080","ratio":"1.78","file_size":768275,"file_type":"image\/png","created_at":"2023-08-03 00:17:08","colors":["#ffffff","#999999","#cccccc","#424153","#000000"],"path":"https:\/\/w.wallhaven.cc\/full\/qz\/wallhaven-qzmg1r.png","thumbs":{"large":"https:\/\/th.wallhaven.cc\/lg\/qz\/qzmg1r.jpg","original":"https:\/\/th.wallhaven.cc\/orig\/qz\/qzmg1r.jpg","small":"https:\/\/th.wallhaven.cc\/small\/qz\/qzmg1r.jpg"}},{"id":"6dp2xx","url":"https:\/\/wallhaven.cc\/w\/6dp2xx","short_url":"https:\/\/whvn.cc\/6dp2xx","views":212,"favorites":10,"source":"","purity":"sfw","category":"general","dimension_x":2560,"dimension_y":1440,"resolution":"2560x1440","ratio":"1.78","file_size":642117,"file_type":"image\/png","created_at":"2023-08-02 23:37:26","colors":["#424153","#cc3333","#663300","#996633","#abbcda"],"path":"https:\/\/w.wallhaven.cc\/full\/6d\/wallhaven-6dp2xx.png","thumbs":{"large":"https:\/\/th.wallhaven.cc\/lg\/6d\/6dp2xx.jpg","original":"https:\/\/th.wallhaven.cc\/orig\/6d\/6dp2xx.jpg","small":"https:\/\/th.wallhaven.cc\/small\/6d\/6dp2xx.jpg"}},{"id":"l8jklp","url":"https:\/\/wallhaven.cc\/w\/l8jklp","short_url":"https:\/\/whvn.cc\/l8jklp","views":207,"favorites":4,"source":"https:\/\/www.pixiv.net\/artworks\/110196651","purity":"sfw","category":"anime","dimension_x":2304,"dimension_y":3072,"resolution":"2304x3072","ratio":"0.75","file_size":2593968,"file_type":"image\/jpeg","created_at":"2023-08-02 21:48:32","colors":["#ffffff","#000000","#660000","#999999","#fdadc7"],"path":"https:\/\/w.wallhaven.cc\/full\/l8\/wallhaven-l8jklp.jpg","thumbs":{"large":"https:\/\/th.wallhaven.cc\/lg\/l8\/l8jklp.jpg","original":"https:\/\/th.wallhaven.cc\/orig\/l8\/l8jklp.jpg","small":"https:\/\/th.wallhaven.cc\/small\/l8\/l8jklp.jpg"}},{"id":"3l65my","url":"https:\/\/wallhaven.cc\/w\/3l65my","short_url":"https:\/\/whvn.cc\/3l65my","views":78,"favorites":0,"source":"https:\/\/www.pixiv.net\/artworks\/110125528","purity":"sfw","category":"anime","dimension_x":1240,"dimension_y":1754,"resolution":"1240x1754","ratio":"0.71","file_size":1805398,"file_type":"image\/png","created_at":"2023-08-02 21:44:03","colors":["#ffffff","#424153","#999999","#663399","#abbcda"],"path":"https:\/\/w.wallhaven.cc\/full\/3l\/wallhaven-3l65my.png","thumbs":{"large":"https:\/\/th.wallhaven.cc\/lg\/3l\/3l65my.jpg","original":"https:\/\/th.wallhaven.cc\/orig\/3l\/3l65my.jpg","small":"https:\/\/th.wallhaven.cc\/small\/3l\/3l65my.jpg"}},{"id":"vqdy83","url":"https:\/\/wallhaven.cc\/w\/vqdy83","short_url":"https:\/\/whvn.cc\/vqdy83","views":93,"favorites":6,"source":"https:\/\/www.pixiv.net\/artworks\/110174791","purity":"sfw","category":"anime","dimension_x":2000,"dimension_y":1130,"resolution":"2000x1130","ratio":"1.77","file_size":1537507,"file_type":"image\/jpeg","created_at":"2023-08-02 21:42:22","colors":["#424153","#663300","#999999","#996633","#cccccc"],"path":"https:\/\/w.wallhaven.cc\/full\/vq\/wallhaven-vqdy83.jpg","thumbs":{"large":"https:\/\/th.wallhaven.cc\/lg\/vq\/vqdy83.jpg","original":"https:\/\/th.wallhaven.cc\/orig\/vq\/vqdy83.jpg","small":"https:\/\/th.wallhaven.cc\/small\/vq\/vqdy83.jpg"}},{"id":"2yo976","url":"https:\/\/wallhaven.cc\/w\/2yo976","short_url":"https:\/\/whvn.cc\/2yo976","views":78,"favorites":1,"source":"https:\/\/www.pixiv.net\/artworks\/109658464","purity":"sfw","category":"anime","dimension_x":1240,"dimension_y":1370,"resolution":"1240x1370","ratio":"0.91","file_size":1052621,"file_type":"image\/jpeg","created_at":"2023-08-02 21:41:03","colors":["#999999","#424153","#cccccc","#abbcda","#ffffff"],"path":"https:\/\/w.wallhaven.cc\/full\/2y\/wallhaven-2yo976.jpg","thumbs":{"large":"https:\/\/th.wallhaven.cc\/lg\/2y\/2yo976.jpg","original":"https:\/\/th.wallhaven.cc\/orig\/2y\/2yo976.jpg","small":"https:\/\/th.wallhaven.cc\/small\/2y\/2yo976.jpg"}},{"id":"wedlzx","url":"https:\/\/wallhaven.cc\/w\/wedlzx","short_url":"https:\/\/whvn.cc\/wedlzx","views":86,"favorites":2,"source":"https:\/\/www.pixiv.net\/artworks\/109760315","purity":"sfw","category":"anime","dimension_x":6201,"dimension_y":7482,"resolution":"6201x7482","ratio":"0.83","file_size":5749109,"file_type":"image\/jpeg","created_at":"2023-08-02 21:39:56","colors":["#ffffff","#424153","#333399","#999999","#abbcda"],"path":"https:\/\/w.wallhaven.cc\/full\/we\/wallhaven-wedlzx.jpg","thumbs":{"large":"https:\/\/th.wallhaven.cc\/lg\/we\/wedlzx.jpg","original":"https:\/\/th.wallhaven.cc\/orig\/we\/wedlzx.jpg","small":"https:\/\/th.wallhaven.cc\/small\/we\/wedlzx.jpg"}},{"id":"d6oe1o","url":"https:\/\/wallhaven.cc\/w\/d6oe1o","short_url":"https:\/\/whvn.cc\/d6oe1o","views":79,"favorites":1,"source":"https:\/\/www.pixiv.net\/artworks\/110202979","purity":"sfw","category":"anime","dimension_x":2010,"dimension_y":2947,"resolution":"2010x2947","ratio":"0.68","file_size":3542071,"file_type":"image\/jpeg","created_at":"2023-08-02 21:37:38","colors":["#ffffff","#424153","#abbcda","#cccccc","#999999"],"path":"https:\/\/w.wallhaven.cc\/full\/d6\/wallhaven-d6oe1o.jpg","thumbs":{"large":"https:\/\/th.wallhaven.cc\/lg\/d6\/d6oe1o.jpg","original":"https:\/\/th.wallhaven.cc\/orig\/d6\/d6oe1o.jpg","small":"https:\/\/th.wallhaven.cc\/small\/d6\/d6oe1o.jpg"}},{"id":"rrpomj","url":"https:\/\/wallhaven.cc\/w\/rrpomj","short_url":"https:\/\/whvn.cc\/rrpomj","views":65,"favorites":0,"source":"https:\/\/www.pixiv.net\/artworks\/110347697","purity":"sfw","category":"anime","dimension_x":2048,"dimension_y":2048,"resolution":"2048x2048","ratio":"1","file_size":1702736,"file_type":"image\/png","created_at":"2023-08-02 21:34:55","colors":["#ffffff","#000000","#424153","#663399","#999999"],"path":"https:\/\/w.wallhaven.cc\/full\/rr\/wallhaven-rrpomj.png","thumbs":{"large":"https:\/\/th.wallhaven.cc\/lg\/rr\/rrpomj.jpg","original":"https:\/\/th.wallhaven.cc\/orig\/rr\/rrpomj.jpg","small":"https:\/\/th.wallhaven.cc\/small\/rr\/rrpomj.jpg"}},{"id":"5gmk98","url":"https:\/\/wallhaven.cc\/w\/5gmk98","short_url":"https:\/\/whvn.cc\/5gmk98","views":215,"favorites":0,"source":"","purity":"sfw","category":"general","dimension_x":7680,"dimension_y":2160,"resolution":"7680x2160","ratio":"3.56","file_size":5069232,"file_type":"image\/jpeg","created_at":"2023-08-02 18:59:09","colors":["#000000","#424153","#660000","#663300","#996633"],"path":"https:\/\/w.wallhaven.cc\/full\/5g\/wallhaven-5gmk98.jpg","thumbs":{"large":"https:\/\/th.wallhaven.cc\/lg\/5g\/5gmk98.jpg","original":"https:\/\/th.wallhaven.cc\/orig\/5g\/5gmk98.jpg","small":"https:\/\/th.wallhaven.cc\/small\/5g\/5gmk98.jpg"}},{"id":"3l651y","url":"https:\/\/wallhaven.cc\/w\/3l651y","short_url":"https:\/\/whvn.cc\/3l651y","views":217,"favorites":1,"source":"","purity":"sfw","category":"general","dimension_x":3840,"dimension_y":2160,"resolution":"3840x2160","ratio":"1.78","file_size":3465089,"file_type":"image\/jpeg","created_at":"2023-08-02 18:58:00","colors":["#000000","#424153","#660000","#663300","#999999"],"path":"https:\/\/w.wallhaven.cc\/full\/3l\/wallhaven-3l651y.jpg","thumbs":{"large":"https:\/\/th.wallhaven.cc\/lg\/3l\/3l651y.jpg","original":"https:\/\/th.wallhaven.cc\/orig\/3l\/3l651y.jpg","small":"https:\/\/th.wallhaven.cc\/small\/3l\/3l651y.jpg"}},{"id":"2yo9q6","url":"https:\/\/wallhaven.cc\/w\/2yo9q6","short_url":"https:\/\/whvn.cc\/2yo9q6","views":171,"favorites":1,"source":"","purity":"sfw","category":"general","dimension_x":7680,"dimension_y":2160,"resolution":"7680x2160","ratio":"3.56","file_size":10020404,"file_type":"image\/jpeg","created_at":"2023-08-02 18:57:01","colors":["#424153","#663300","#996633","#999999","#000000"],"path":"https:\/\/w.wallhaven.cc\/full\/2y\/wallhaven-2yo9q6.jpg","thumbs":{"large":"https:\/\/th.wallhaven.cc\/lg\/2y\/2yo9q6.jpg","original":"https:\/\/th.wallhaven.cc\/orig\/2y\/2yo9q6.jpg","small":"https:\/\/th.wallhaven.cc\/small\/2y\/2yo9q6.jpg"}},{"id":"wedl7x","url":"https:\/\/wallhaven.cc\/w\/wedl7x","short_url":"https:\/\/whvn.cc\/wedl7x","views":170,"favorites":3,"source":"","purity":"sfw","category":"general","dimension_x":3840,"dimension_y":2160,"resolution":"3840x2160","ratio":"1.78","file_size":6173953,"file_type":"image\/jpeg","created_at":"2023-08-02 18:55:46","colors":["#424153","#e7d8b1","#000000","#996633","#999999"],"path":"https:\/\/w.wallhaven.cc\/full\/we\/wallhaven-wedl7x.jpg","thumbs":{"large":"https:\/\/th.wallhaven.cc\/lg\/we\/wedl7x.jpg","original":"https:\/\/th.wallhaven.cc\/orig\/we\/wedl7x.jpg","small":"https:\/\/th.wallhaven.cc\/small\/we\/wedl7x.jpg"}},{"id":"m3gw58","url":"https:\/\/wallhaven.cc\/w\/m3gw58","short_url":"https:\/\/whvn.cc\/m3gw58","views":192,"favorites":3,"source":"","purity":"sfw","category":"general","dimension_x":1280,"dimension_y":1920,"resolution":"1280x1920","ratio":"0.67","file_size":2787553,"file_type":"image\/png","created_at":"2023-08-02 18:32:59","colors":["#000000","#424153","#996633","#999999","#cccccc"],"path":"https:\/\/w.wallhaven.cc\/full\/m3\/wallhaven-m3gw58.png","thumbs":{"large":"https:\/\/th.wallhaven.cc\/lg\/m3\/m3gw58.jpg","original":"https:\/\/th.wallhaven.cc\/orig\/m3\/m3gw58.jpg","small":"https:\/\/th.wallhaven.cc\/small\/m3\/m3gw58.jpg"}},{"id":"7pewvy","url":"https:\/\/wallhaven.cc\/w\/7pewvy","short_url":"https:\/\/whvn.cc\/7pewvy","views":117,"favorites":0,"source":"","purity":"sfw","category":"anime","dimension_x":3840,"dimension_y":2160,"resolution":"3840x2160","ratio":"1.78","file_size":9265595,"file_type":"image\/png","created_at":"2023-08-02 18:32:17","colors":["#0099cc","#66cccc","#663300","#000000","#996633"],"path":"https:\/\/w.wallhaven.cc\/full\/7p\/wallhaven-7pewvy.png","thumbs":{"large":"https:\/\/th.wallhaven.cc\/lg\/7p\/7pewvy.jpg","original":"https:\/\/th.wallhaven.cc\/orig\/7p\/7pewvy.jpg","small":"https:\/\/th.wallhaven.cc\/small\/7p\/7pewvy.jpg"}},{"id":"l8jkxp","url":"https:\/\/wallhaven.cc\/w\/l8jkxp","short_url":"https:\/\/whvn.cc\/l8jkxp","views":182,"favorites":2,"source":"","purity":"sfw","category":"general","dimension_x":3840,"dimension_y":2160,"resolution":"3840x2160","ratio":"1.78","file_size":468466,"file_type":"image\/jpeg","created_at":"2023-08-02 18:19:19","colors":["#424153","#000000","#999999","#996633","#e7d8b1"],"path":"https:\/\/w.wallhaven.cc\/full\/l8\/wallhaven-l8jkxp.jpg","thumbs":{"large":"https:\/\/th.wallhaven.cc\/lg\/l8\/l8jkxp.jpg","original":"https:\/\/th.wallhaven.cc\/orig\/l8\/l8jkxp.jpg","small":"https:\/\/th.wallhaven.cc\/small\/l8\/l8jkxp.jpg"}},{"id":"yx2g6l","url":"https:\/\/wallhaven.cc\/w\/yx2g6l","short_url":"https:\/\/whvn.cc\/yx2g6l","views":141,"favorites":1,"source":"","purity":"sfw","category":"general","dimension_x":3840,"dimension_y":2160,"resolution":"3840x2160","ratio":"1.78","file_size":401890,"file_type":"image\/jpeg","created_at":"2023-08-02 18:16:03","colors":["#000000","#424153","#996633","#999999","#663300"],"path":"https:\/\/w.wallhaven.cc\/full\/yx\/wallhaven-yx2g6l.jpg","thumbs":{"large":"https:\/\/th.wallhaven.cc\/lg\/yx\/yx2g6l.jpg","original":"https:\/\/th.wallhaven.cc\/orig\/yx\/yx2g6l.jpg","small":"https:\/\/th.wallhaven.cc\/small\/yx\/yx2g6l.jpg"}},{"id":"l8jkxr","url":"https:\/\/wallhaven.cc\/w\/l8jkxr","short_url":"https:\/\/whvn.cc\/l8jkxr","views":171,"favorites":1,"source":"","purity":"sfw","category":"general","dimension_x":3840,"dimension_y":2160,"resolution":"3840x2160","ratio":"1.78","file_size":2567575,"file_type":"image\/jpeg","created_at":"2023-08-02 17:39:35","colors":["#424153","#000000","#999999","#333399","#663399"],"path":"https:\/\/w.wallhaven.cc\/full\/l8\/wallhaven-l8jkxr.jpg","thumbs":{"large":"https:\/\/th.wallhaven.cc\/lg\/l8\/l8jkxr.jpg","original":"https:\/\/th.wallhaven.cc\/orig\/l8\/l8jkxr.jpg","small":"https:\/\/th.wallhaven.cc\/small\/l8\/l8jkxr.jpg"}},{"id":"yx2g6k","url":"https:\/\/wallhaven.cc\/w\/yx2g6k","short_url":"https:\/\/whvn.cc\/yx2g6k","views":177,"favorites":0,"source":"","purity":"sfw","category":"general","dimension_x":3840,"dimension_y":2160,"resolution":"3840x2160","ratio":"1.78","file_size":1596210,"file_type":"image\/jpeg","created_at":"2023-08-02 17:37:40","colors":["#424153","#000000","#999999","#abbcda","#663399"],"path":"https:\/\/w.wallhaven.cc\/full\/yx\/wallhaven-yx2g6k.jpg","thumbs":{"large":"https:\/\/th.wallhaven.cc\/lg\/yx\/yx2g6k.jpg","original":"https:\/\/th.wallhaven.cc\/orig\/yx\/yx2g6k.jpg","small":"https:\/\/th.wallhaven.cc\/small\/yx\/yx2g6k.jpg"}},{"id":"5gmkv3","url":"https:\/\/wallhaven.cc\/w\/5gmkv3","short_url":"https:\/\/whvn.cc\/5gmkv3","views":137,"favorites":5,"source":"","purity":"sfw","category":"anime","dimension_x":3840,"dimension_y":2160,"resolution":"3840x2160","ratio":"1.78","file_size":655177,"file_type":"image\/png","created_at":"2023-08-02 17:18:22","colors":["#cccccc","#000000","#424153","#999999","#ffffff"],"path":"https:\/\/w.wallhaven.cc\/full\/5g\/wallhaven-5gmkv3.png","thumbs":{"large":"https:\/\/th.wallhaven.cc\/lg\/5g\/5gmkv3.jpg","original":"https:\/\/th.wallhaven.cc\/orig\/5g\/5gmkv3.jpg","small":"https:\/\/th.wallhaven.cc\/small\/5g\/5gmkv3.jpg"}}],"meta":{"current_page":1,"last_page":18513,"per_page":24,"total":444299,"query":null,"seed":null}}